STA130H1F – Fall 2018
…
library(tidyverse)
count(weather_check, age)

## # A tibble: 5 x 2
##   age         n
##   <fct>   <int>
## 1 18 - 29   176
## 2 30 - 44   204
## 3 45 - 59   278
## 4 60+       258
## 5 <NA>       12

count(group_by(weather_check, age), weather_source)

## # A tibble: 34 x 3
## # Groups:   age [5]
##    age     weather_source                                            n
##    <fct>   <chr>                                                 <int>
##  1 18 - 29 A specific website or app (please provide the answer)    28
##  2 18 - 29 Internet search                                          35
##  3 18 - 29 Local TV News                                            14
##  4 18 - 29 Newsletter                                                2
##  5 18 - 29 Newspaper                                                 2
##  6 18 - 29 Radio weather                                             5
##  7 18 - 29 The default weather app on your phone                    64
##  8 18 - 29 The Weather Channel                                      26
##  9 30 - 44 A specific website or app (please provide the answer)    45
## 10 30 - 44 Internet search                                          26
## # ... with 24 more rows
…
