STA130H1F
…
---

##Plotting the parallel lines

The `augment` function (in the library `broom`) creates a data frame with predicted values (`.fitted`), residuals, etc. for linear model output.

```r
library(broom)
augment(parallel_lines)
```

```
## # A tibble: 463 x 10
##    score gender bty_avg .fitted .se.fit  .resid    .hat .sigma .cooksd
##  * <dbl> <fct>    <dbl>   <dbl>   <dbl>   <dbl>   <dbl>  <dbl>   <dbl>
##  1   4.7 female    5       4.12  0.0383  0.582  0.00524  0.529 2.14e-3
##  2   4.1 female    5       4.12  0.0383 -0.0181 0.00524  0.529 2.07e-6
##  3   3.9 female    5       4.12  0.0383 -0.218  0.00524  0.529 3.00e-4
##  4   4.8 female    5       4.12  0.0383  0.682  0.00524  0.528 2.94e-3
##  5   4.6 male      3       4.14  0.0381  0.458  0.00519  0.529 1.31e-3
##  6   4.3 male      3       4.14  0.0381  0.158  0.00519  0.529 1.56e-4
##  7   2.8 male      3       4.14  0.0381 -1.34   0.00519  0.526 1.13e-2
##  8   4.1 male      3.33    4.17  0.0355 -0.0669 0.00451  0.529 2.43e-5
##  9   3.4 male      3.33    4.17  0.0355 -0.767  0.00451  0.528 3.19e-3
## 10   4.5 female    3.17    3.98  0.0450  0.518  0.00723  0.529 2.35e-3
## # ... with 453 more rows, and 1 more variable: .std.resid <dbl>
```
…
