STA130H1F
…
---

## Select variables/columns using `select()` 

To retrieve a data frame with only major, number of male and female graduates we use the `select()` function in the `dplyr` library.

```r
select(college_recent_grads,major, men,women)
```

```
## # A tibble: 173 x 3
##    major                                       men women
##    <chr>                                     <int> <int>
##  1 Petroleum Engineering                      2057   282
##  2 Mining And Mineral Engineering              679    77
##  3 Metallurgical Engineering                   725   131
##  4 Naval Architecture And Marine Engineering  1123   135
##  5 Chemical Engineering                      21239 11021
##  6 Nuclear Engineering                        2200   373
##  7 Actuarial Science                          2110  1667
##  8 Astronomy And Astrophysics                  832   960
##  9 Mechanical Engineering                    80320 10907
## 10 Electrical Engineering                    65511 16016
## # ... with 163 more rows
```
…
---

```r
college_recent_grads %>% 
  select(major, men, women) %>% 
  mutate(total = men + women, 
         pct_female = round((women / total)*100, 2), 
         sex.equal = ifelse(pct_female >= 45 & pct_female <= 55, 
                            "Yes","No")) %>%
  select(major,sex.equal)
```

```
## # A tibble: 173 x 2
##    major                                     sex.equal
##    <chr>                                     <chr>    
##  1 Petroleum Engineering                     No       
##  2 Mining And Mineral Engineering            No       
##  3 Metallurgical Engineering                 No       
##  4 Naval Architecture And Marine Engineering No       
##  5 Chemical Engineering                      No       
##  6 Nuclear Engineering                       No       
##  7 Actuarial Science                         No       
##  8 Astronomy And Astrophysics                Yes      
##  9 Mechanical Engineering                    No       
## 10 Electrical Engineering                    No       
## # ... with 163 more rows
```
…
---
## Sort a data frame using `arrange()`

```r
my_college_dat %>% 
  select(major, salary_median) %>% 
  arrange(desc(salary_median))
```

```
## # A tibble: 173 x 2
##    major                                     salary_median
##    <chr>                                             <dbl>
##  1 Petroleum Engineering                            110000
##  2 Mining And Mineral Engineering                    75000
##  3 Metallurgical Engineering                         73000
##  4 Naval Architecture And Marine Engineering         70000
##  5 Chemical Engineering                              65000
##  6 Nuclear Engineering                               65000
##  7 Actuarial Science                                 62000
##  8 Astronomy And Astrophysics                        62000
##  9 Mechanical Engineering                            60000
## 10 Electrical Engineering                            60000
## # ... with 163 more rows
```
…
---

## Sentiment Lexicon

- Several lexicons (dictionaries) have been developed that categorize words according to sentiment (feeling or emotion).
- The `tidytext` library contains several lexicons.

```r
library(tidytext)
sentiments
```

```
## # A tibble: 27,314 x 4
##    word        sentiment lexicon score
##    <chr>       <chr>     <chr>   <int>
##  1 abacus      trust     nrc        NA
##  2 abandon     fear      nrc        NA
##  3 abandon     negative  nrc        NA
##  4 abandon     sadness   nrc        NA
##  5 abandoned   anger     nrc        NA
##  6 abandoned   fear      nrc        NA
##  7 abandoned   negative  nrc        NA
##  8 abandoned   sadness   nrc        NA
##  9 abandonment anger     nrc        NA
## 10 abandonment fear      nrc        NA
## # ... with 27,304 more rows
```
…
## NRC Lexicon

- The nrc lexicon categorizes words in a binary fashion (“yes”/“no”) into categories of positive, negative, anger, anticipation, disgust, fear, joy, sadness, surprise, and trust.   
- The `getsentiments()` function provides a way to get specific sentiment lexicons without the columns that are not used in that lexicon.

---

## NRC Lexicon

```r
get_sentiments("nrc")
```

```
## # A tibble: 13,901 x 2
##    word        sentiment
##    <chr>       <chr>    
##  1 abacus      trust    
##  2 abandon     fear     
##  3 abandon     negative 
##  4 abandon     sadness  
##  5 abandoned   anger    
##  6 abandoned   fear     
##  7 abandoned   negative 
##  8 abandoned   sadness  
##  9 abandonment anger    
## 10 abandonment fear     
## # ... with 13,891 more rows
```

---

## Sentiment of Words used in Tweets

- To examine the sentiment of the words Trump used in tweets we need to join the data frame containing the NRC lexicon and the data frame of Trump's words used in tweets.

- `inner_join(x,y)`: return all rows from x where there are matching values in y, and all columns from x and y. If there are multiple matches between x and y, all combination of the matches are returned.

```r
trumptweets %>% inner_join(get_sentiments("nrc"))
```

```
## # A tibble: 33,043 x 5
##    source  created_at           id_str word      sentiment
##    <chr>   <dttm>                <dbl> <chr>     <chr>    
##  1 Android 2013-02-06 01:53:40 2.99e17 terrific  sadness  
##  2 Android 2013-02-18 23:36:36 3.04e17 sky       positive 
##  3 Android 2013-02-18 23:36:36 3.04e17 rocket    anger    
##  4 Android 2013-02-18 23:36:36 3.04e17 payback   anger    
##  5 Android 2013-02-18 23:36:36 3.04e17 payback   negative 
##  6 Android 2013-02-19 00:25:48 3.04e17 surprised surprise 
##  7 Android 2013-02-19 12:36:19 3.04e17 buss      joy      
##  8 Android 2013-02-19 12:36:19 3.04e17 buss      positive 
##  9 Android 2013-02-19 12:36:19 3.04e17 friend    joy      
## 10 Android 2013-02-19 12:36:19 3.04e17 friend    positive 
## # ... with 33,033 more rows
```
…
