STA130H1F
…
---

## Select variables/columns using `select()` 

To retrieve a data frame with only major, number of male and female graduates we use the `select()` function in the `dplyr` library.

```r
select(college_recent_grads,major, men,women)
```

```
## # A tibble: 173 x 3
##    major                                       men women
##    <chr>                                     <int> <int>
##  1 Petroleum Engineering                      2057   282
##  2 Mining And Mineral Engineering              679    77
##  3 Metallurgical Engineering                   725   131
##  4 Naval Architecture And Marine Engineering  1123   135
##  5 Chemical Engineering                      21239 11021
##  6 Nuclear Engineering                        2200   373
##  7 Actuarial Science                          2110  1667
##  8 Astronomy And Astrophysics                  832   960
##  9 Mechanical Engineering                    80320 10907
## 10 Electrical Engineering                    65511 16016
## # ... with 163 more rows
```
…
---

```r
college_recent_grads %>% 
  select(major, men, women) %>% 
  mutate(total = men + women, 
         pct_female = round((women / total)*100, 2), 
         sex.equal = ifelse(pct_female >= 45 & pct_female <= 55, 
                            "Yes","No")) %>%
  select(major,sex.equal)
```

```
## # A tibble: 173 x 2
##    major                                     sex.equal
##    <chr>                                     <chr>    
##  1 Petroleum Engineering                     No       
##  2 Mining And Mineral Engineering            No       
##  3 Metallurgical Engineering                 No       
##  4 Naval Architecture And Marine Engineering No       
##  5 Chemical Engineering                      No       
##  6 Nuclear Engineering                       No       
##  7 Actuarial Science                         No       
##  8 Astronomy And Astrophysics                Yes      
##  9 Mechanical Engineering                    No       
## 10 Electrical Engineering                    No       
## # ... with 163 more rows
```
…
---
## Sort a data frame using `arrange()`

```r
my_college_dat %>% 
  select(major, salary_median) %>% 
  arrange(desc(salary_median))
```

```
## # A tibble: 173 x 2
##    major                                     salary_median
##    <chr>                                             <dbl>
##  1 Petroleum Engineering                            110000
##  2 Mining And Mineral Engineering                    75000
##  3 Metallurgical Engineering                         73000
##  4 Naval Architecture And Marine Engineering         70000
##  5 Chemical Engineering                              65000
##  6 Nuclear Engineering                               65000
##  7 Actuarial Science                                 62000
##  8 Astronomy And Astrophysics                        62000
##  9 Mechanical Engineering                            60000
## 10 Electrical Engineering                            60000
## # ... with 163 more rows
```
…
