STA130H1 â€“ Winter 2018
…
movies %>% filter(!is.na(budget))

## # A tibble: 5,215 x 24
##                         title  year length   budget rating votes    r1
##                         <chr> <int>  <int>    <int>  <dbl> <int> <dbl>
##  1                    'G' Men  1935     85   450000    7.2   281   0.0
##  2  'Manos' the Hands of Fate  1966     74    19000    1.6  7996  74.5
##  3         'Til There Was You  1997    113 23000000    4.8   799   4.5
##  4            .com for Murder  2002     96  5000000    3.7   271  64.5
##  5 10 Things I Hate About You  1999     97 16000000    6.7 19095   4.5
##  6              100 Mile Rule  2002     98  1100000    5.6   181   4.5
##  7                  100 Proof  1997     94   140000    3.3    19  14.5
##  8                        101  1989    117   200000    7.8   299   4.5
##  9           101-vy kilometer  2001    103   200000    5.8     7   0.0
## 10             102 Dalmatians  2000    100 85000000    4.7  1987   4.5
## # ... with 5,205 more rows, and 17 more variables: r2 <dbl>, r3 <dbl>,
## #   r4 <dbl>, r5 <dbl>, r6 <dbl>, r7 <dbl>, r8 <dbl>, r9 <dbl>, r10 <dbl>,
## #   mpaa <chr>, Action <int>, Animation <int>, Comedy <int>, Drama <int>,
## #   Documentary <int>, Romance <int>, Short <int>
…
